{
  "appId": "org.hamstudy.runnertracker",
  "appName": "Runner Tracker",
  "bundledWebRuntime": false,
  "webDir": "dist",
  "plugins": {
    "SplashScreen": {
      "launchAutoHide": false
    }
  }
}
